C:\Users\Com-J\Documents\NetBeansProjects\OXSwing\src\main\java\Game.java
C:\Users\Com-J\Documents\NetBeansProjects\OXSwing\src\main\java\Table.java
C:\Users\Com-J\Documents\NetBeansProjects\OXSwing\src\main\java\Player.java
C:\Users\Com-J\Documents\NetBeansProjects\OXSwing\src\main\java\BoardFrame.java
